…
Since the mean by time interval was used to impute the missing values, the mean did not change between the original and adjusted data sets.  The median shifted slightly to the same number as the mean due to the large number of NA values replaced by mean numbers.

## What is the impact of imputing missing data on the estimates of the total daily number of steps?


```r
total_daily_steps_imputed <- imputed_activity %>%
        group_by(date) %>%
        summarise(total_steps = sum(steps)) 

total_daily_steps_imputed
```

```
## # A tibble: 61 x 2
##          date total_steps
##        <date>       <dbl>
##  1 2012-10-01    10766.19
##  2 2012-10-02      126.00
##  3 2012-10-03    11352.00
##  4 2012-10-04    12116.00
##  5 2012-10-05    13294.00
##  6 2012-10-06    15420.00
##  7 2012-10-07    11015.00
##  8 2012-10-08    10766.19
##  9 2012-10-09    12811.00
## 10 2012-10-10     9900.00
## # ... with 51 more rows
```
…
